…
``` r
library(nycflights13)
```

**Parte 1: Dplyr - filter**

**1.Encuentra todos los vuelos que:**

*a.Tuvieron un retraso de llegada de dos o más horas*

``` r
dplyr::filter(flights, arr_delay >= 120)
```

    ## # A tibble: 10,200 x 19
    ##     year month   day dep_time sched_dep_time dep_delay arr_time sched_arr_time
    ##    <int> <int> <int>    <int>          <int>     <dbl>    <int>          <int>
    ##  1  2013     1     1      811            630       101     1047            830
    ##  2  2013     1     1      848           1835       853     1001           1950
    ##  3  2013     1     1      957            733       144     1056            853
    ##  4  2013     1     1     1114            900       134     1447           1222
    ##  5  2013     1     1     1505           1310       115     1638           1431
    ##  6  2013     1     1     1525           1340       105     1831           1626
    ##  7  2013     1     1     1549           1445        64     1912           1656
    ##  8  2013     1     1     1558           1359       119     1718           1515
    ##  9  2013     1     1     1732           1630        62     2028           1825
    ## 10  2013     1     1     1803           1620       103     2008           1750
    ## # ... with 10,190 more rows, and 11 more variables: arr_delay <dbl>,
    ## #   carrier <chr>, flight <int>, tailnum <chr>, origin <chr>, dest <chr>,
    ## #   air_time <dbl>, distance <dbl>, hour <dbl>, minute <dbl>, time_hour <dttm>

*b. Volaron a Houston (IAH o HOU)*

``` r
dplyr::filter(flights, dest=="IAH"|dest=="HOU")
```

    ## # A tibble: 9,313 x 19
    ##     year month   day dep_time sched_dep_time dep_delay arr_time sched_arr_time
    ##    <int> <int> <int>    <int>          <int>     <dbl>    <int>          <int>
    ##  1  2013     1     1      517            515         2      830            819
    ##  2  2013     1     1      533            529         4      850            830
    ##  3  2013     1     1      623            627        -4      933            932
    ##  4  2013     1     1      728            732        -4     1041           1038
    ##  5  2013     1     1      739            739         0     1104           1038
    ##  6  2013     1     1      908            908         0     1228           1219
    ##  7  2013     1     1     1028           1026         2     1350           1339
    ##  8  2013     1     1     1044           1045        -1     1352           1351
    ##  9  2013     1     1     1114            900       134     1447           1222
    ## 10  2013     1     1     1205           1200         5     1503           1505
    ## # ... with 9,303 more rows, and 11 more variables: arr_delay <dbl>,
    ## #   carrier <chr>, flight <int>, tailnum <chr>, origin <chr>, dest <chr>,
    ## #   air_time <dbl>, distance <dbl>, hour <dbl>, minute <dbl>, time_hour <dttm>

*c. Fueron operados por United, American o Delta*

``` r
filter(flights, carrier=="UU"|carrier=="AA"|carrier=="DL")
```

    ## # A tibble: 80,839 x 19
    ##     year month   day dep_time sched_dep_time dep_delay arr_time sched_arr_time
    ##    <int> <int> <int>    <int>          <int>     <dbl>    <int>          <int>
    ##  1  2013     1     1      542            540         2      923            850
    ##  2  2013     1     1      554            600        -6      812            837
    ##  3  2013     1     1      558            600        -2      753            745
    ##  4  2013     1     1      559            600        -1      941            910
    ##  5  2013     1     1      602            610        -8      812            820
    ##  6  2013     1     1      606            610        -4      858            910
    ##  7  2013     1     1      606            610        -4      837            845
    ##  8  2013     1     1      615            615         0      833            842
    ##  9  2013     1     1      623            610        13      920            915
    ## 10  2013     1     1      628            630        -2     1137           1140
    ## # ... with 80,829 more rows, and 11 more variables: arr_delay <dbl>,
    ## #   carrier <chr>, flight <int>, tailnum <chr>, origin <chr>, dest <chr>,
    ## #   air_time <dbl>, distance <dbl>, hour <dbl>, minute <dbl>, time_hour <dttm>

*d. Partieron en invierno del hemisferio sur (julio, agosto y
septiembre)*

``` r
filter(flights, month %in% c(7, 8, 9))
```

    ## # A tibble: 86,326 x 19
    ##     year month   day dep_time sched_dep_time dep_delay arr_time sched_arr_time
    ##    <int> <int> <int>    <int>          <int>     <dbl>    <int>          <int>
    ##  1  2013     7     1        1           2029       212      236           2359
    ##  2  2013     7     1        2           2359         3      344            344
    ##  3  2013     7     1       29           2245       104      151              1
    ##  4  2013     7     1       43           2130       193      322             14
    ##  5  2013     7     1       44           2150       174      300            100
    ##  6  2013     7     1       46           2051       235      304           2358
    ##  7  2013     7     1       48           2001       287      308           2305
    ##  8  2013     7     1       58           2155       183      335             43
    ##  9  2013     7     1      100           2146       194      327             30
    ## 10  2013     7     1      100           2245       135      337            135
    ## # ... with 86,316 more rows, and 11 more variables: arr_delay <dbl>,
    ## #   carrier <chr>, flight <int>, tailnum <chr>, origin <chr>, dest <chr>,
    ## #   air_time <dbl>, distance <dbl>, hour <dbl>, minute <dbl>, time_hour <dttm>

*e. Llegaron más de dos horas tarde, pero no salieron tarde*

``` r
filter(flights, dep_delay <= 0 & arr_delay > 120)
```

    ## # A tibble: 29 x 19
    ##     year month   day dep_time sched_dep_time dep_delay arr_time sched_arr_time
    ##    <int> <int> <int>    <int>          <int>     <dbl>    <int>          <int>
    ##  1  2013     1    27     1419           1420        -1     1754           1550
    ##  2  2013    10     7     1350           1350         0     1736           1526
    ##  3  2013    10     7     1357           1359        -2     1858           1654
    ##  4  2013    10    16      657            700        -3     1258           1056
    ##  5  2013    11     1      658            700        -2     1329           1015
    ##  6  2013     3    18     1844           1847        -3       39           2219
    ##  7  2013     4    17     1635           1640        -5     2049           1845
    ##  8  2013     4    18      558            600        -2     1149            850
    ##  9  2013     4    18      655            700        -5     1213            950
    ## 10  2013     5    22     1827           1830        -3     2217           2010
    ## # ... with 19 more rows, and 11 more variables: arr_delay <dbl>, carrier <chr>,
    ## #   flight <int>, tailnum <chr>, origin <chr>, dest <chr>, air_time <dbl>,
    ## #   distance <dbl>, hour <dbl>, minute <dbl>, time_hour <dttm>

*f. Se retrasaron por lo menos una hora, pero repusieron más de 30
minutos en vuelo*

``` r
filter(flights, dep_delay >= 60 & arr_delay > 30)
```

    ## # A tibble: 26,563 x 19
    ##     year month   day dep_time sched_dep_time dep_delay arr_time sched_arr_time
    ##    <int> <int> <int>    <int>          <int>     <dbl>    <int>          <int>
    ##  1  2013     1     1      811            630       101     1047            830
    ##  2  2013     1     1      826            715        71     1136           1045
    ##  3  2013     1     1      848           1835       853     1001           1950
    ##  4  2013     1     1      957            733       144     1056            853
    ##  5  2013     1     1     1114            900       134     1447           1222
    ##  6  2013     1     1     1120            944        96     1331           1213
    ##  7  2013     1     1     1301           1150        71     1518           1345
    ##  8  2013     1     1     1337           1220        77     1649           1531
    ##  9  2013     1     1     1400           1250        70     1645           1502
    ## 10  2013     1     1     1505           1310       115     1638           1431
    ## # ... with 26,553 more rows, and 11 more variables: arr_delay <dbl>,
    ## #   carrier <chr>, flight <int>, tailnum <chr>, origin <chr>, dest <chr>,
    ## #   air_time <dbl>, distance <dbl>, hour <dbl>, minute <dbl>, time_hour <dttm>

*g. Partieron entre la medianoche y las 6 a.m. (incluyente)*

``` r
filter(flights, dep_time %in% c(1:600) | dep_time == 2400)
```

    ## # A tibble: 9,373 x 19
    ##     year month   day dep_time sched_dep_time dep_delay arr_time sched_arr_time
    ##    <int> <int> <int>    <int>          <int>     <dbl>    <int>          <int>
    ##  1  2013     1     1      517            515         2      830            819
    ##  2  2013     1     1      533            529         4      850            830
    ##  3  2013     1     1      542            540         2      923            850
    ##  4  2013     1     1      544            545        -1     1004           1022
    ##  5  2013     1     1      554            600        -6      812            837
    ##  6  2013     1     1      554            558        -4      740            728
    ##  7  2013     1     1      555            600        -5      913            854
    ##  8  2013     1     1      557            600        -3      709            723
    ##  9  2013     1     1      557            600        -3      838            846
    ## 10  2013     1     1      558            600        -2      753            745
    ## # ... with 9,363 more rows, and 11 more variables: arr_delay <dbl>,
    ## #   carrier <chr>, flight <int>, tailnum <chr>, origin <chr>, dest <chr>,
    ## #   air_time <dbl>, distance <dbl>, hour <dbl>, minute <dbl>, time_hour <dttm>
…
``` r
##Es igual a `TRUE` pues el NA se entiende como un valor lógico (`TRUE` or `FALSE`) y por lógica proposicional `TRUE`&`FALSE` y `FALSE`&`FALSE` es siempre `FALSE`
```

**Parte 2: Dplyr - arrange**

**1. ¿Cómo podrías usar arrange() para ordenar todos los valores
faltantes al comienzo? (Sugerencia: usa is.na()).**

``` r
arrange(flights,desc(is.na(air_time)))
```

    ## # A tibble: 336,776 x 19
    ##     year month   day dep_time sched_dep_time dep_delay arr_time sched_arr_time
    ##    <int> <int> <int>    <int>          <int>     <dbl>    <int>          <int>
    ##  1  2013     1     1     1525           1530        -5     1934           1805
    ##  2  2013     1     1     1528           1459        29     2002           1647
    ##  3  2013     1     1     1740           1745        -5     2158           2020
    ##  4  2013     1     1     1807           1738        29     2251           2103
    ##  5  2013     1     1     1939           1840        59       29           2151
    ##  6  2013     1     1     1952           1930        22     2358           2207
    ##  7  2013     1     1     2016           1930        46       NA           2220
    ##  8  2013     1     1       NA           1630        NA       NA           1815
    ##  9  2013     1     1       NA           1935        NA       NA           2240
    ## 10  2013     1     1       NA           1500        NA       NA           1825
    ## # ... with 336,766 more rows, and 11 more variables: arr_delay <dbl>,
    ## #   carrier <chr>, flight <int>, tailnum <chr>, origin <chr>, dest <chr>,
    ## #   air_time <dbl>, distance <dbl>, hour <dbl>, minute <dbl>, time_hour <dttm>

**2. Ordena ‘vuelos’ para encontrar los vuelos más retrasados. Encuentra
los vuelos que salieron más temprano.**

*Vuelos que salieron con más retraso*

``` r
arrange(flights, desc(arr_delay))
```

    ## # A tibble: 336,776 x 19
    ##     year month   day dep_time sched_dep_time dep_delay arr_time sched_arr_time
    ##    <int> <int> <int>    <int>          <int>     <dbl>    <int>          <int>
    ##  1  2013     1     9      641            900      1301     1242           1530
    ##  2  2013     6    15     1432           1935      1137     1607           2120
    ##  3  2013     1    10     1121           1635      1126     1239           1810
    ##  4  2013     9    20     1139           1845      1014     1457           2210
    ##  5  2013     7    22      845           1600      1005     1044           1815
    ##  6  2013     4    10     1100           1900       960     1342           2211
    ##  7  2013     3    17     2321            810       911      135           1020
    ##  8  2013     7    22     2257            759       898      121           1026
    ##  9  2013    12     5      756           1700       896     1058           2020
    ## 10  2013     5     3     1133           2055       878     1250           2215
    ## # ... with 336,766 more rows, and 11 more variables: arr_delay <dbl>,
    ## #   carrier <chr>, flight <int>, tailnum <chr>, origin <chr>, dest <chr>,
    ## #   air_time <dbl>, distance <dbl>, hour <dbl>, minute <dbl>, time_hour <dttm>

*Vuelos que salieron con más temprano*

``` r
arrange(flights, arr_delay)
```

    ## # A tibble: 336,776 x 19
    ##     year month   day dep_time sched_dep_time dep_delay arr_time sched_arr_time
    ##    <int> <int> <int>    <int>          <int>     <dbl>    <int>          <int>
    ##  1  2013     5     7     1715           1729       -14     1944           2110
    ##  2  2013     5    20      719            735       -16      951           1110
    ##  3  2013     5     2     1947           1949        -2     2209           2324
    ##  4  2013     5     6     1826           1830        -4     2045           2200
    ##  5  2013     5     4     1816           1820        -4     2017           2131
    ##  6  2013     5     2     1926           1929        -3     2157           2310
    ##  7  2013     5     6     1753           1755        -2     2004           2115
    ##  8  2013     5     7     2054           2055        -1     2317             28
    ##  9  2013     5    13      657            700        -3      908           1019
    ## 10  2013     1     4     1026           1030        -4     1305           1415
    ## # ... with 336,766 more rows, and 11 more variables: arr_delay <dbl>,
    ## #   carrier <chr>, flight <int>, tailnum <chr>, origin <chr>, dest <chr>,
    ## #   air_time <dbl>, distance <dbl>, hour <dbl>, minute <dbl>, time_hour <dttm>

**3. Ordena `vuelos` para encontrar los vuelos más rápidos (que viajaron
a mayor velocidad).**

*velocidad es igual a `distancia`/`tiempo_vuelo`*

``` r
arrange(flights,desc(distance/air_time))
```

    ## # A tibble: 336,776 x 19
    ##     year month   day dep_time sched_dep_time dep_delay arr_time sched_arr_time
    ##    <int> <int> <int>    <int>          <int>     <dbl>    <int>          <int>
    ##  1  2013     5    25     1709           1700         9     1923           1937
    ##  2  2013     7     2     1558           1513        45     1745           1719
    ##  3  2013     5    13     2040           2025        15     2225           2226
    ##  4  2013     3    23     1914           1910         4     2045           2043
    ##  5  2013     1    12     1559           1600        -1     1849           1917
    ##  6  2013    11    17      650            655        -5     1059           1150
    ##  7  2013     2    21     2355           2358        -3      412            438
    ##  8  2013    11    17      759            800        -1     1212           1255
    ##  9  2013    11    16     2003           1925        38       17             36
    ## 10  2013    11    16     2349           2359       -10      402            440
    ## # ... with 336,766 more rows, and 11 more variables: arr_delay <dbl>,
    ## #   carrier <chr>, flight <int>, tailnum <chr>, origin <chr>, dest <chr>,
    ## #   air_time <dbl>, distance <dbl>, hour <dbl>, minute <dbl>, time_hour <dttm>

**4. ¿Cuáles vuelos viajaron más lejos? ¿Cuál viajó más cerca?**

*- Vuelos que viajaron más lejos*

``` r
arrange(flights,desc(distance))
```

    ## # A tibble: 336,776 x 19
    ##     year month   day dep_time sched_dep_time dep_delay arr_time sched_arr_time
    ##    <int> <int> <int>    <int>          <int>     <dbl>    <int>          <int>
    ##  1  2013     1     1      857            900        -3     1516           1530
    ##  2  2013     1     2      909            900         9     1525           1530
    ##  3  2013     1     3      914            900        14     1504           1530
    ##  4  2013     1     4      900            900         0     1516           1530
    ##  5  2013     1     5      858            900        -2     1519           1530
    ##  6  2013     1     6     1019            900        79     1558           1530
    ##  7  2013     1     7     1042            900       102     1620           1530
    ##  8  2013     1     8      901            900         1     1504           1530
    ##  9  2013     1     9      641            900      1301     1242           1530
    ## 10  2013     1    10      859            900        -1     1449           1530
    ## # ... with 336,766 more rows, and 11 more variables: arr_delay <dbl>,
    ## #   carrier <chr>, flight <int>, tailnum <chr>, origin <chr>, dest <chr>,
    ## #   air_time <dbl>, distance <dbl>, hour <dbl>, minute <dbl>, time_hour <dttm>

*- Vuelos que viajaron más cerca*

``` r
arrange(flights, distance)
```

    ## # A tibble: 336,776 x 19
    ##     year month   day dep_time sched_dep_time dep_delay arr_time sched_arr_time
    ##    <int> <int> <int>    <int>          <int>     <dbl>    <int>          <int>
    ##  1  2013     7    27       NA            106        NA       NA            245
    ##  2  2013     1     3     2127           2129        -2     2222           2224
    ##  3  2013     1     4     1240           1200        40     1333           1306
    ##  4  2013     1     4     1829           1615       134     1937           1721
    ##  5  2013     1     4     2128           2129        -1     2218           2224
    ##  6  2013     1     5     1155           1200        -5     1241           1306
    ##  7  2013     1     6     2125           2129        -4     2224           2224
    ##  8  2013     1     7     2124           2129        -5     2212           2224
    ##  9  2013     1     8     2127           2130        -3     2304           2225
    ## 10  2013     1     9     2126           2129        -3     2217           2224
    ## # ... with 336,766 more rows, and 11 more variables: arr_delay <dbl>,
    ## #   carrier <chr>, flight <int>, tailnum <chr>, origin <chr>, dest <chr>,
    ## #   air_time <dbl>, distance <dbl>, hour <dbl>, minute <dbl>, time_hour <dttm>

**Parte 3: Dplyr - select**

**1. Haz una lluvia de ideas sobre tantas maneras como sea posible para
seleccionar dep_time, dep_delay, arr_time, and arr_delay de flights.**

*- Selecionadas por su nombre:*

``` r
select(flights, dep_time, dep_delay, arr_time, arr_delay)
```

    ## # A tibble: 336,776 x 4
    ##    dep_time dep_delay arr_time arr_delay
    ##       <int>     <dbl>    <int>     <dbl>
    ##  1      517         2      830        11
    ##  2      533         4      850        20
    ##  3      542         2      923        33
    ##  4      544        -1     1004       -18
    ##  5      554        -6      812       -25
    ##  6      554        -4      740        12
    ##  7      555        -5      913        19
    ##  8      557        -3      709       -14
    ##  9      557        -3      838        -8
    ## 10      558        -2      753         8
    ## # ... with 336,766 more rows
…
